example/vcd-trace.vcd
$date
   Wed Aug 31 14:26:15 2022
$end
$timescale
   1ns
$end
$version
   C++ Simple VCD Logger
$end
$scope module riscv_isa_sim $end
$scope module core0 $end
$scope module processor $end
$var wire 64 ! pc $end
$var wire 64 " jump_pc $end
$var wire 64 # insn $end
$var wire 1 $ wfi $end
$var wire 64 % x0 $end
$var wire 64 & x1 $end
$var wire 64 ' x2 $end
$var wire 64 ( x3 $end
$var wire 64 ) x4 $end
$var wire 64 * x5 $end
$var wire 64 + x6 $end
$var wire 64 , x7 $end
$var wire 64 - x8 $end
$var wire 64 . x9 $end
$var wire 64 / x10 $end
$var wire 64 0 x11 $end
$var wire 64 1 x12 $end
$var wire 64 2 x13 $end
$var wire 64 3 x14 $end
$var wire 64 4 x15 $end
$var wire 64 5 x16 $end
$var wire 64 6 x17 $end
$var wire 64 7 x18 $end
$var wire 64 8 x19 $end
$var wire 64 9 x20 $end
$var wire 64 : x21 $end
$var wire 64 ; x22 $end
$var wire 64 < x23 $end
$var wire 64 = x24 $end
$var wire 64 > x25 $end
$var wire 64 ? x26 $end
$var wire 64 @ x27 $end
$var wire 64 A x28 $end
$var wire 64 B x29 $end
$var wire 64 C x30 $end
$var wire 64 D x31 $end
$var wire 128 E f0 $end
$var wire 128 F f1 $end
$var wire 128 G f2 $end
$var wire 128 H f3 $end
$var wire 128 I f4 $end
$var wire 128 J f5 $end
$var wire 128 K f6 $end
$var wire 128 L f7 $end
$var wire 128 M f8 $end
$var wire 128 N f9 $end
$var wire 128 O f10 $end
$var wire 128 P f11 $end
$var wire 128 Q f12 $end
$var wire 128 R f13 $end
$var wire 128 S f14 $end
$var wire 128 T f15 $end
$var wire 128 U f16 $end
$var wire 128 V f17 $end
$var wire 128 W f18 $end
$var wire 128 X f19 $end
$var wire 128 Y f20 $end
$var wire 128 Z f21 $end
$var wire 128 [ f22 $end
$var wire 128 \ f23 $end
$var wire 128 ] f24 $end
$var wire 128 ^ f25 $end
$var wire 128 _ f26 $end
$var wire 128 ` f27 $end
$var wire 128 a f28 $end
$var wire 128 b f29 $end
$var wire 128 c f30 $end
$var wire 128 d f31 $end
$upscope $end
$scope module bus $end
$var wire 64 e addr $end
$var wire 64 f wr_data $end
$var wire 64 g rd_data $end
$var wire 1 h wr_strobe $end
$var wire 1 i rd_strobe $end
$var wire 8 j size $end
$upscope $end
$scope module vars $end
$var wire 32 k mei_count $end
$var wire 32 l msi_count $end
$var wire 32 m mti_count $end
$var wire 64 n ecall_count $end
$var wire 64 o wakeup_count $end
$var wire 8 p count_123 $end
$var wire 64 q timestamp $end
$upscope $end
$scope module csrs $end
$var wire 64 r misa $end
$var wire 64 s mstatus $end
$var wire 64 t mepc $end
$var wire 64 u mtval $end
$var wire 64 v mtvec $end
$var wire 64 w mcause $end
$var wire 64 x minstret $end
$var wire 64 y mie $end
$var wire 64 z mip $end
$var wire 64 !! medeleg $end
$var wire 64 !" mideleg $end
$var wire 64 !# mcounteren $end
$var wire 64 !$ scounteren $end
$var wire 64 !% sepc $end
$var wire 64 !& stval $end
$var wire 64 !' stvec $end
$var wire 64 !( satp $end
$var wire 64 !) scause $end
$var wire 64 !* mtval2 $end
$var wire 64 !+ mtinst $end
$var wire 64 !, hstatus $end
$var wire 64 !- hideleg $end
$var wire 64 !. hedeleg $end
$var wire 64 !/ hcounteren $end
$var wire 64 !0 htval $end
$var wire 64 !1 htinst $end
$var wire 64 !2 hgatp $end
$var wire 64 !3 sstatus $end
$var wire 64 !4 vsstatus $end
$var wire 64 !5 vstvec $end
$var wire 64 !6 vsepc $end
$var wire 64 !7 vscause $end
$var wire 64 !8 vstval $end
$var wire 64 !9 vsatp $end
$var wire 64 !: dpc $end
$var wire 64 !; dcsr $end
$var wire 64 !< tselect $end
$var wire 64 != tdata2 $end
$var wire 64 !> pmpaddr0 $end
$var wire 64 !? pmpaddr1 $end
$var wire 64 !@ pmpaddr2 $end
$var wire 64 !A pmpaddr3 $end
$var wire 64 !B pmpaddr4 $end
$var wire 64 !C pmpaddr5 $end
$var wire 64 !D pmpaddr6 $end
$var wire 64 !E pmpaddr7 $end
$var wire 64 !F pmpaddr8 $end
$var wire 64 !G pmpaddr9 $end
$var wire 64 !H pmpaddr10 $end
$var wire 64 !I pmpaddr11 $end
$var wire 64 !J pmpaddr12 $end
$var wire 64 !K pmpaddr13 $end
$var wire 64 !L pmpaddr14 $end
$var wire 64 !M pmpaddr15 $end
$var wire 64 !N fflags $end
$var wire 64 !O frm $end
$upscope $end
$scope module interrupts $end
$var wire 1 !P mti $end
$var wire 1 !Q msi $end
$var wire 1 !R mei $end
$upscope $end
$upscope $end
$scope module clint $end
$var wire 64 !S mtime $end
$var wire 64 !T mtimecmp0 $end
$upscope $end
$upscope $end
$enddefinitions $end
#0
b01000000000000 !
b011111111111111111111111111111111 !>
0$
b01010010111 #
b01000000000000 *
#1
b01000000000100 !
0$
b010000000101000010110010011 #
b01000000100000 0
#2
b01000000001000 !
0$
b01000000001100 !
b011110001010000000010010101110011 #
0$
b0 /
#3
b01100000101010001010000011 #
b0100000000000010000000000000000 *
b01000000011000 e
b0100000000000010000000000000000 g
1i
b0100 j
#4
b01000000010000 !
0$
0i
b0100000000000010000000000000000 "
b0101000000001100111 #
#5
b0100000000000010000000000000000 !
0$
b01011111111111110001000110010111 #
b10000000000000000001000000000000 (
#6
b0100000000000010000000000000100 !
0$
b010000000000000011000000110010011 #
b10000000000000000000100000000000 (
#7
b0100000000000010000000000001000 !
0$
b01011111111111110001000100010111 #
b10000000000000000001000000001000 '
#8
b0100000000000010000000000001100 !
0$
b011110010100000010000000100010011 #
b10000000000000000000111100110000 '
#9
b0100000000000010000000000010000 !
0$
b0100000000000010000001010001010 "
b0100111101000000000000001101111 #
#10
b0100000000000010000001010001010 !
0$
b010000000000000000000011110110111 #
b10000000000000000000000000000000 4
#11
b0100000000000010000001010001110 !
0$
b01111010010100000011 #
b0 /
b10000000000000000000000000000000 e
b0 g
1i
b0100 j
#12
b0100000000000010000001010010010 !
0$
0i
b010000000000000000000011110110111 #
b10000000000000000000000000000000 4
#13
b0100000000000010000001010010110 !
0$
b011000001111010011000000011 #
b0 1
b10000000000000000000000000110000 e
b0 g
1i
b0100 j
#14
b0100000000000010000001010011010 !
0$
0i
b01000101000001 #
b10000000000000000000111100100000 '
#15
b0100000000000010000001010011100 !
0$
b0100010110000001 #
b0 0
#16
b0100000000000010000001010011110 !
0$
b01000111000001001 #
b0 1
#17
b0100000000000010000001010100000 !
0$
b01100011000000110 #
b010000000000000000000111100101100 e
b0 f
1h
b0100 j
#18
b0100000000000010000001010100010 !
0$
0h
b01100010000100010 #
b010000000000000000000111100101000 e
b0 f
1h
b0100 j
#19
b0100000000000010000001010100100 !
0$
0h
b01100001000100110 #
b010000000000000000000111100100100 e
b0 f
1h
b0100 j
#20
b0100000000000010000001010100110 !
0$
0h
b01100000001001010 #
b010000000000000000000111100100000 e
b0 f
1h
b0100 j
#21
b0100000000000010000001010101000 !
0$
0h
b0100000000000010000101001010100 "
b01111010110000000000000011101111 #
b0100000000000010000001010101100 &
#22
b0100000000000010000101001010100 !
0$
b0100001100111101 #
b01111 +
#23
b0100000000000010000101001010110 !
0$
b01000011100101010 #
b0 3
#24
b0100000000000010000101001011000 !
0$
b010110000110111001101100011 #
#25
b0100000000000010000101001111110 !
0$
b01000000110000110000011010110011 #
b01111 2
#26
b0100000000000010000101010000010 !
0$
b011010001010 #
b0111100 2
#27
b0100000000000010000101010000100 !
0$
b01010010111 #
b0100000000000010000101010000100 *
#28
b0100000000000010000101010001000 !
0$
b01001011010010110 #
b0100000000000010000101011000000 2
#29
b0100000000000010000101010001010 !
0$
b0100000000000010000101011001010 "
b0101001101000000001100111 #
#30
b0100000000000010000101011001010 !
0$
b0100000000000010000001010101100 "
b01000000010000010 #
#31
b0100000000000010000001010101100 !
0$
b010000000000000000000011110110111 #
b10000000000000000000000000000000 4
#32
b0100000000000010000001010110000 !
0$
b01111010010100000011 #
b0 /
b10000000000000000000000000000000 e
b0 g
1i
b0100 j
#33
b0100000000000010000001010110100 !
0$
0i
b010000000000000000000011110110111 #
b10000000000000000000000000000000 4
#34
b0100000000000010000001010111000 !
0$
b01111010011000000011 #
b0 1
b10000000000000000000000000000000 e
b0 g
1i
b0100 j
#35
b0100000000000010000001010111100 !
0$
0i
b0100000000000010001011110110111 #
b0100000000000010001000000000000 4
#36
b0100000000000010000001011000000 !
0$
b010110000000001111010010110000011 #
b0 0
b0100000000000010000101100000000 e
b0 g
1i
b0100 j
#37
b0100000000000010000001011000100 !
0$
0i
b01000111000001001 #
b0 1
#38
b0100000000000010000001011000110 !
0$
b0100000000000010000010010110111 #
b0100000000000010000000000000000 .
#39
b0100000000000010000001011001010 !
0$
b0100000000000010000100100001110 "
b01100100010000000000000011101111 #
b0100000000000010000001011001110 &
#40
b0100000000000010000100100001110 !
0$
b0101101010100011110110011 #
b0 4
#41
b0100000000000010000100100010010 !
0$
b01000101110001101 #
b0 4
#42
b0100000000000010000100100010100 !
0$
b0110001010000100010110011 #
b0 6
#43
b0100000000000010000100100011000 !
0$
b01110011110110001 #
#44
b0100000000000010000100100011010 !
0$
b0100011110001101 #
b011 4
#45
b0100000000000010000100100011100 !
0$
b0100110001111111010001100011 #
#46
b0100000000000010000100101100100 !
0$
b01000011100101010 #
b0 3
#47
b0100000000000010000100101100110 !
0$
b011000101010111111001100011 #
#48
b0100000000000010000100110100010 !
0$
b0100000000000010000001011001110 "
b01000000010000010 #
#49
b0100000000000010000001011001110 !
0$
b01000000000000000011110110111 #
b01000000000000000000000000000 4
#50
b0100000000000010000001011010010 !
0$
b01111010010100000011 #
b0 /
b01000000000000000000000000000 e
b0 g
1i
b0100 j
#51
b0100000000000010000001011010110 !
0$
0i
b01000000000000000011110110111 #
b01000000000000000000000000000 4
#52
b0100000000000010000001011011010 !
0$
b01111010011000000011 #
b0 1
b01000000000000000000000000000 e
b0 g
1i
b0100 j
#53
b0100000000000010000001011011110 !
0$
0i
b0100000000000010000011110110111 #
b0100000000000010000000000000000 4
#54
b0100000000000010000001011100010 !
0$
b01100001111010010110000011 #
b0 0
b0100000000000010000000000011000 e
b0 g
1i
b0100 j
#55
b0100000000000010000001011100110 !
0$
0i
b01000000110001010000011000110011 #
b0 1
#56
b0100000000000010000001011101010 !
0$
b01100001001000010000010011 #
b0100000000000010000000000011000 -
#57
b0100000000000010000001011101110 !
0$
b0100000000000010000100100001110 "
b01100010000000000000000011101111 #
b0100000000000010000001011110010 &
#58
b0100000000000010000100100001110 !
0$
b0101101010100011110110011 #
b0 4
#59
b0100000000000010000100100010010 !
0$
b01000101110001101 #
b0 4
#60
b0100000000000010000100100010100 !
0$
b0110001010000100010110011 #
b0 6
#61
b0100000000000010000100100011000 !
0$
b01110011110110001 #
#62
b0100000000000010000100100011010 !
0$
b0100011110001101 #
b011 4
#63
b0100000000000010000100100011100 !
0$
b0100110001111111010001100011 #
#64
b0100000000000010000100101100100 !
0$
b01000011100101010 #
b0 3
#65
b0100000000000010000100101100110 !
0$
b011000101010111111001100011 #
#66
b0100000000000010000100110100010 !
0$
b0100000000000010000001011110010 "
b01000000010000010 #
#67
b0100000000000010000001011110010 !
0$
b0100000000000010000011110110111 #
b0100000000000010000000000000000 4
#68
b0100000000000010000001011110110 !
0$
b01100001111000011110010011 #
b0100000000000010000000000011000 4
#69
b0100000000000010000001011111010 !
0$
b01000110000011101 #
b0 -
#70
b0100000000000010000001011111100 !
0$
b01000010000001001 #
b0 -
#71
b0100000000000010000001011111110 !
0$
b01000000000001001 #
b0 -
#72
b0100000000000010000001100000000 !
0$
b01100001001000010010010011 #
b0100000000000010000000000011000 .
#73
b0100000000000010000001100000100 !
0$
b0100100100000001 #
b0 7
#74
b0100000000000010000001100000110 !
0$
b01001001000001011001100011 #
#75
b0100000000000010000001100001010 !
0$
b0100000000000010000000100000000 "
b011101111011101 #
b0100000000000010000001100001100 &
#76
b0100000000000010000000100000000 !
0$
b01000101000001 #
b10000000000000000000111100010000 '
#77
b0100000000000010000000100000010 !
0$
b01100010000100010 #
b010000000000000000000111100011000 e
b0 f
1h
b0100 j
#78
b0100000000000010000000100000100 !
0$
0h
b0100011110000101 #
b01 4
#79
b0100000000000010000000100000110 !
0$
b010000000000000000000010000110111 #
b10000000000000000000000000000000 -
#80
b0100000000000010000000100001010 !
0$
b01100011000000110 #
b010000000000000000000111100011100 e
b0100000000000010000001100001100 f
1h
b0100 j
#81
b0100000000000010000000100001100 !
0$
0h
b010111101000000000000100011 #
b010000000000000000000000000100000 e
b01 f
1h
b01 j
b01 p
#82
b0100000000000010000000100010000 !
0$
0h
b0100011100100001 #
b01000 3
#83
b0100000000000010000000100010010 !
0$
b0100000000000010000000100010110 !
b0110000000001110011000001110011 #
0$
b01100000000000 s
#84
b0100011110000001 #
b0 4
#85
b0100000000000010000000100011000 !
0$
b0100000000000010000000100011100 !
b0110000010001111001000001110011 #
0$
b0 y
#86
b0100000000000010000011110110111 #
b0100000000000010000000000000000 4
#87
b0100000000000010000000100100000 !
0$
b01000000000001111000011110010011 #
b0100000000000010000010000000000 4
#88
b0100000000000010000000100100100 !
0$
b0101111110011110010011 #
b0100000000000010000010000000001 4
#89
b0100000000000010000000100101000 !
0$
b0100000000000010000000100101100 !
b0110000010101111001000001110011 #
0$
b0100000000000010000010000000001 v
#90
b0110011110000101 #
b01000000000000 4
#91
b0100000000000010000000100101110 !
0$
b010001000100001111000011110010011 #
b0100010001000 4
#92
b0100000000000010000000100110010 !
0$
b0100000000000010000000100110110 !
b0110000010001111010000001110011 #
0$
b0100010001000 y
#93
b0100000000000010000000100111010 !
b0110000000001110010000001110011 #
0$
b01100000001000 s
#94
b0100000000000010000001100100010 "
b010001011100101 #
b0100000000000010000000100111100 &
#95
b0100000000000010000001100100010 !
0$
b010000000001100011100110111 #
b010000000001100000000000000 3
#96
b0100000000000010000001100100110 !
0$
b011111111110001110000011110010011 #
b010000000001011111111111100 4
#97
b0100000000000010000001100101010 !
0$
b011111111100001110000011000010011 #
b010000000001011111111111000 1
#98
b0100000000000010000001100101110 !
0$
1!P
0!Q
0!R
b0 !S
b0100001110010100 #
b0 2
b010000000001011111111111100 e
b0 g
1i
b0100 j
b010000000 z
#99
b0100000000000010000001100110000 !
0$
0i
b0100000000000010000010000011100 !
b0 !*
b0 !+
0$
b01100010000000 s
b0100000000000010000001100110000 t
b0 u
b010000000000000000000000000000111 w
#100
b0100000000000010000000110000100 "
b011010110100111111111000001101111 #
#101
b0100000000000010000000110000100 !
0$
b0111000100111001 #
b10000000000000000000111011010000 '
#102
b0100000000000010000000110000110 !
0$
b01100111000111010 #
b010000000000000000000111011101100 e
b010000000001100000000000000 f
1h
b0100 j
#103
b0100000000000010000000110001000 !
0$
0h
b010000000000000000000011100110111 #
b10000000000000000000000000000000 3
#104
b0100000000000010000000110001100 !
0$
b01100110000111110 #
b010000000000000000000111011101000 e
b010000000001011111111111100 f
1h
b0100 j
#105
b0100000000000010000000110001110 !
0$
0h
b0100001110010011110000011 #
b0 4
b10000000000000000000000000001000 e
b0 g
1i
b0100 j
#106
b0100000000000010000000110010010 !
0$
0i
b01101011000101010 #
b010000000000000000000111011111100 e
b0 f
1h
b0100 j
#107
b0100000000000010000000110010100 !
0$
0h
b01101010000101110 #
b010000000000000000000111011111000 e
b0 f
1h
b0100 j
#108
b0100000000000010000000110010110 !
0$
0h
b011110000101 #
b01 4
#109
b0100000000000010000000110011000 !
0$
b0100010100101001 #
b01010 /
#110
b0100000000000010000000110011010 !
0$
b0100010110000001 #
b0 0
#111
b0100000000000010000000110011100 !
0$
b01101000000110110 #
b010000000000000000000111011110000 e
b0 f
1h
b0100 j
#112
b0100000000000010000000110011110 !
0$
0h
b01101111000000110 #
b010000000000000000000111100001100 e
b0100000000000010000000100111100 f
1h
b0100 j
#113
b0100000000000010000000110100000 !
0$
0h
b01101110000010110 #
b010000000000000000000111100001000 e
b0100000000000010000101010000100 f
1h
b0100 j
#114
b0100000000000010000000110100010 !
0$
0h
b01101101000011010 #
b010000000000000000000111100000100 e
b01111 f
1h
b0100 j
#115
b0100000000000010000000110100100 !
0$
0h
b01101100000011110 #
b010000000000000000000111100000000 e
b0 f
1h
b0100 j
#116
b0100000000000010000000110100110 !
0$
0h
b01101001000110010 #
b010000000000000000000111011110100 e
b010000000001011111111111000 f
1h
b0100 j
#117
b0100000000000010000000110101000 !
0$
0h
b01100101001000010 #
b010000000000000000000111011100100 e
b0 f
1h
b0100 j
#118
b0100000000000010000000110101010 !
0$
0h
b01100100001000110 #
b010000000000000000000111011100000 e
b0 f
1h
b0100 j
#119
b0100000000000010000000110101100 !
0$
0h
b01100011001110010 #
b010000000000000000000111011011100 e
b0 f
1h
b0100 j
#120
b0100000000000010000000110101110 !
0$
0h
b01100010001110110 #
b010000000000000000000111011011000 e
b0 f
1h
b0100 j
#121
b0100000000000010000000110110000 !
0$
0h
b01100001001111010 #
b010000000000000000000111011010100 e
b0 f
1h
b0100 j
#122
b0100000000000010000000110110010 !
0$
0h
b01100000001111110 #
b010000000000000000000111011010000 e
b0 f
1h
b0100 j
#123
b0100000000000010000000110110100 !
0$
0h
b0111101110010010000100011 #
b010000000000000000000000000001000 e
b01 f
1h
b0100 j
b01 m
#124
b0100000000000010000000110111000 !
0$
0h
b0100000000000010000001100111010 "
b010001001001001 #
b0100000000000010000000110111010 &
#125
b0100000000000010000001100111010 !
0$
b01000101000001 #
b10000000000000000000111011000000 '
#126
b0100000000000010000001100111100 !
0$
b01100010000100010 #
b010000000000000000000111011001000 e
b010000000000000000000000000000000 f
1h
b0100 j
#127
b0100000000000010000001100111110 !
0$
0h
b01100001000100110 #
b010000000000000000000111011000100 e
b0100000000000010000000000011000 f
1h
b0100 j
#128
b0100000000000010000001101000000 !
0$
0h
b01100011000000110 #
b010000000000000000000111011001100 e
b0100000000000010000000110111010 f
1h
b0100 j
#129
b0100000000000010000001101000010 !
0$
0h
b01000010000101010 #
b01010 -
#130
b0100000000000010000001101000100 !
0$
b01000010010101110 #
b0 .
#131
b0100000000000010000001101000110 !
0$
b0100000000000010000001100100010 "
b011111111110001 #
b0100000000000010000001101001000 &
#132
b0100000000000010000001100100010 !
0$
b010000000001100011100110111 #
b010000000001100000000000000 3
#133
b0100000000000010000001100100110 !
0$
b011111111110001110000011110010011 #
b010000000001011111111111100 4
#134
b0100000000000010000001100101010 !
0$
b011111111100001110000011000010011 #
b010000000001011111111111000 1
#135
b0100000000000010000001100101110 !
0$
1!P
0!Q
0!R
b0 !S
b0100001110010100 #
b0 2
b010000000001011111111111100 e
b0 g
1i
b0100 j
b010000000 z
#136
b0100000000000010000001100110000 !
0$
0i
1!P
0!Q
0!R
b0 !S
b0100001000001000 #
b0 /
b010000000001011111111111000 e
b0 g
1i
b0100 j
b010000000 z
#137
b0100000000000010000001100110010 !
0$
0i
1!P
0!Q
0!R
b0 !S
b0100001110001100 #
b0 0
b010000000001011111111111100 e
b0 g
1i
b0100 j
b010000000 z
#138
b0100000000000010000001100110100 !
0$
0i
b011111110110101011001100111100011 #
#139
b0100000000000010000001100111000 !
0$
b0100000000000010000001101001000 "
b01000000010000010 #
#140
b0100000000000010000001101001000 !
0$
b0100001010000011110110011 #
b01010 4
#141
b0100000000000010000001101001100 !
0$
b010000000000100011100110111 #
b010000000000100000000000000 3
#142
b0100000000000010000001101010000 !
0$
b0101011011111101 #
b1 2
#143
b0100000000000010000001101010010 !
0$
0!P
0!Q
0!R
b0 !S
b100000000000000000000000000000000 !T
b01100001101010100 #
b010000000000100000000000100 e
b011111111111111111111111111111111 f
1h
b0100 j
b0 z
#144
b0100000000000010000001101010100 !
0$
0h
b0100000010110010 #
b0100000000000010000000110111010 &
b10000000000000000000111011001100 e
b0100000000000010000000110111010 g
1i
b0100 j
#145
b0100000000000010000001101010110 !
0$
0i
b0100010000100010 #
b10000000000000000000000000000000 -
b10000000000000000000111011001000 e
b10000000000000000000000000000000 g
1i
b0100 j
#146
b0100000000000010000001101011000 !
0$
0i
b01001010110100110 #
b0 0
#147
b0100000000000010000001101011010 !
0$
b0101001111011010100110011 #
b0 /
#148
b0100000000000010000001101011110 !
0$
0!P
0!Q
0!R
b0 !S
b100000000000000000000000000001010 !T
b01100001100011100 #
b010000000000100000000000000 e
b01010 f
1h
b0100 j
b0 z
#149
b0100000000000010000001101100000 !
0$
0h
b01001010100101110 #
b0 /
#150
b0100000000000010000001101100010 !
0$
0!P
0!Q
0!R
b0 !S
b01010 !T
b01100001101001000 #
b010000000000100000000000100 e
b0 f
1h
b0100 j
b0 z
#151
b0100000000000010000001101100100 !
0$
0h
b0100010010010010 #
b0100000000000010000000000011000 .
b10000000000000000000111011000100 e
b0100000000000010000000000011000 g
1i
b0100 j
#152
b0100000000000010000001101100110 !
0$
0i
b0101000001 #
b10000000000000000000111011010000 '
#153
b0100000000000010000001101101000 !
0$
b0100000000000010000000110111010 "
b01000000010000010 #
#154
b0100000000000010000000110111010 !
0$
b0100000000000010000001100100010 "
b010001010100101 #
b0100000000000010000000110111100 &
#155
b0100000000000010000001100100010 !
0$
b010000000001100011100110111 #
b010000000001100000000000000 3
#156
b0100000000000010000001100100110 !
0$
b011111111110001110000011110010011 #
b010000000001011111111111100 4
#157
b0100000000000010000001100101010 !
0$
b011111111100001110000011000010011 #
b010000000001011111111111000 1
#158
b0100000000000010000001100101110 !
0$
0!P
0!Q
0!R
b0 !S
b0100001110010100 #
b0 2
b010000000001011111111111100 e
b0 g
1i
b0100 j
b0 z
#159
b0100000000000010000001100110000 !
0$
0i
0!P
0!Q
0!R
b0 !S
b0100001000001000 #
b0 /
b010000000001011111111111000 e
b0 g
1i
b0100 j
b0 z
#160
b0100000000000010000001100110010 !
0$
0i
0!P
0!Q
0!R
b0 !S
b0100001110001100 #
b0 0
b010000000001011111111111100 e
b0 g
1i
b0100 j
b0 z
#161
b0100000000000010000001100110100 !
0$
0i
b011111110110101011001100111100011 #
#162
b0100000000000010000001100111000 !
0$
b0100000000000010000000110111100 "
b01000000010000010 #
#163
b0100000000000010000000110111100 !
0$
b010000000000000000000011010110111 #
b10000000000000000000000000000000 2
#164
b0100000000000010000000111000000 !
0$
b010101001101010010000100011 #
b010000000000000000000000000101000 e
b0 f
1h
b0100 j
b0 q
#165
b0100000000000010000000111000100 !
0$
0h
b010101101101010011000100011 #
b010000000000000000000000000101100 e
b0 f
1h
b0100 j
#166
b0100000000000010000000111001000 !
0$
0h
b0101000011110010 #
b0100000000000010000000100111100 &
b10000000000000000000111100001100 e
b0100000000000010000000100111100 g
1i
b0100 j
#167
b0100000000000010000000111001010 !
0$
0i
b0101001011100010 #
b0100000000000010000101010000100 *
b10000000000000000000111100001000 e
b0100000000000010000101010000100 g
1i
b0100 j
#168
b0100000000000010000000111001100 !
0$
0i
b0101001101010010 #
b01111 +
b10000000000000000000111100000100 e
b01111 g
1i
b0100 j
#169
b0100000000000010000000111001110 !
0$
0i
b0101001111000010 #
b0 ,
b10000000000000000000111100000000 e
b0 g
1i
b0100 j
#170
b0100000000000010000000111010000 !
0$
0i
b0101010100110010 #
b0 /
b10000000000000000000111011111100 e
b0 g
1i
b0100 j
#171
b0100000000000010000000111010010 !
0$
0i
b0101010110100010 #
b0 0
b10000000000000000000111011111000 e
b0 g
1i
b0100 j
#172
b0100000000000010000000111010100 !
0$
0i
b0101011000010010 #
b010000000001011111111111000 1
b10000000000000000000111011110100 e
b010000000001011111111111000 g
1i
b0100 j
#173
b0100000000000010000000111010110 !
0$
0i
b0101011010000010 #
b0 2
b10000000000000000000111011110000 e
b0 g
1i
b0100 j
#174
b0100000000000010000000111011000 !
0$
0i
b0100011101110010 #
b010000000001100000000000000 3
b10000000000000000000111011101100 e
b010000000001100000000000000 g
1i
b0100 j
#175
b0100000000000010000000111011010 !
0$
0i
b0100011111100010 #
b010000000001011111111111100 4
b10000000000000000000111011101000 e
b010000000001011111111111100 g
1i
b0100 j
#176
b0100000000000010000000111011100 !
0$
0i
b0100100001010010 #
b0 5
b10000000000000000000111011100100 e
b0 g
1i
b0100 j
#177
b0100000000000010000000111011110 !
0$
0i
b0100100011000010 #
b0 6
b10000000000000000000111011100000 e
b0 g
1i
b0100 j
#178
b0100000000000010000000111100000 !
0$
0i
b0100111000110010 #
b0 A
b10000000000000000000111011011100 e
b0 g
1i
b0100 j
#179
b0100000000000010000000111100010 !
0$
0i
b0100111010100010 #
b0 B
b10000000000000000000111011011000 e
b0 g
1i
b0100 j
#180
b0100000000000010000000111100100 !
0$
0i
b0100111100010010 #
b0 C
b10000000000000000000111011010100 e
b0 g
1i
b0100 j
#181
b0100000000000010000000111100110 !
0$
0i
b0100111110000010 #
b0 D
b10000000000000000000111011010000 e
b0 g
1i
b0100 j
#182
b0100000000000010000000111101000 !
0$
0i
b0110000100100001 #
b10000000000000000000111100010000 '
#183
b0100000000000010000000111101010 !
0$
b0100000000000010000001100110000 !
b0100000000000010000001100110000 "
b0110000001000000000000001110011 #
0$
b01100010001000 s
#184
0!P
0!Q
0!R
b0 !S
b0100001000001000 #
b0 /
b010000000001011111111111000 e
b0 g
1i
b0100 j
b0 z
#185
b0100000000000010000001100110010 !
0$
0i
0!P
0!Q
0!R
b0 !S
b0100001110001100 #
b0 0
b010000000001011111111111100 e
b0 g
1i
b0100 j
b0 z
#186
b0100000000000010000001100110100 !
0$
0i
b011111110110101011001100111100011 #
#187
b0100000000000010000001100111000 !
0$
b0100000000000010000000100111100 "
b01000000010000010 #
#188
b0100000000000010000000100111100 !
0$
b010000000000000000000011010110111 #
b10000000000000000000000000000000 2
#189
b0100000000000010000000101000000 !
0$
b010101001101010010000100011 #
b010000000000000000000000000101000 e
b0 f
1h
b0100 j
b0 q
#190
b0100000000000010000000101000100 !
0$
0h
b010101101101010011000100011 #
b010000000000000000000000000101100 e
b0 f
1h
b0100 j
#191
b0100000000000010000000101001000 !
0$
0h
b0100010100101001 #
b01010 /
#192
b0100000000000010000000101001010 !
0$
b0100010110000001 #
b0 0
#193
b0100000000000010000000101001100 !
0$
b0100000000000010000001100111010 "
b010001011111101 #
b0100000000000010000000101001110 &
#194
b0100000000000010000001100111010 !
0$
b01000101000001 #
b10000000000000000000111100000000 '
#195
b0100000000000010000001100111100 !
0$
b01100010000100010 #
b010000000000000000000111100001000 e
b010000000000000000000000000000000 f
1h
b0100 j
#196
b0100000000000010000001100111110 !
0$
0h
b01100001000100110 #
b010000000000000000000111100000100 e
b0100000000000010000000000011000 f
1h
b0100 j
#197
b0100000000000010000001101000000 !
0$
0h
b01100011000000110 #
b010000000000000000000111100001100 e
b0100000000000010000000101001110 f
1h
b0100 j
#198
b0100000000000010000001101000010 !
0$
0h
b01000010000101010 #
b01010 -
#199
b0100000000000010000001101000100 !
0$
b01000010010101110 #
b0 .
#200
b0100000000000010000001101000110 !
0$
b0100000000000010000001100100010 "
b011111111110001 #
b0100000000000010000001101001000 &
#201
b0100000000000010000001100100010 !
0$
b010000000001100011100110111 #
b010000000001100000000000000 3
#202
b0100000000000010000001100100110 !
0$
b011111111110001110000011110010011 #
b010000000001011111111111100 4
#203
b0100000000000010000001100101010 !
0$
b011111111100001110000011000010011 #
b010000000001011111111111000 1
#204
b0100000000000010000001100101110 !
0$
0!P
0!Q
0!R
b0 !S
b0100001110010100 #
b0 2
b010000000001011111111111100 e
b0 g
1i
b0100 j
b0 z
#205
b0100000000000010000001100110000 !
0$
0i
0!P
0!Q
0!R
b0 !S
b0100001000001000 #
b0 /
b010000000001011111111111000 e
b0 g
1i
b0100 j
b0 z
#206
b0100000000000010000001100110010 !
0$
0i
0!P
0!Q
0!R
b0 !S
b0100001110001100 #
b0 0
b010000000001011111111111100 e
b0 g
1i
b0100 j
b0 z
#207
b0100000000000010000001100110100 !
0$
0i
b011111110110101011001100111100011 #
#208
b0100000000000010000001100111000 !
0$
b0100000000000010000001101001000 "
b01000000010000010 #
#209
b0100000000000010000001101001000 !
0$
b0100001010000011110110011 #
b01010 4
#210
b0100000000000010000001101001100 !
0$
b010000000000100011100110111 #
b010000000000100000000000000 3
#211
b0100000000000010000001101010000 !
0$
b0101011011111101 #
b1 2
#212
b0100000000000010000001101010010 !
0$
0!P
0!Q
0!R
b0 !S
b100000000000000000000000000001010 !T
b01100001101010100 #
b010000000000100000000000100 e
b011111111111111111111111111111111 f
1h
b0100 j
b0 z
#213
b0100000000000010000001101010100 !
0$
0h
b0100000010110010 #
b0100000000000010000000101001110 &
b10000000000000000000111100001100 e
b0100000000000010000000101001110 g
1i
b0100 j
#214
b0100000000000010000001101010110 !
0$
0i
b0100010000100010 #
b10000000000000000000000000000000 -
b10000000000000000000111100001000 e
b10000000000000000000000000000000 g
1i
b0100 j
#215
b0100000000000010000001101011000 !
0$
0i
b01001010110100110 #
b0 0
#216
b0100000000000010000001101011010 !
0$
b0101001111011010100110011 #
b0 /
#217
b0100000000000010000001101011110 !
0$
0!P
0!Q
0!R
b0 !S
b100000000000000000000000000001010 !T
b01100001100011100 #
b010000000000100000000000000 e
b01010 f
1h
b0100 j
b0 z
#218
b0100000000000010000001101100000 !
0$
0h
b01001010100101110 #
b0 /
#219
b0100000000000010000001101100010 !
0$
0!P
0!Q
0!R
b0 !S
b01010 !T
b01100001101001000 #
b010000000000100000000000100 e
b0 f
1h
b0100 j
b0 z
#220
b0100000000000010000001101100100 !
0$
0h
b0100010010010010 #
b0100000000000010000000000011000 .
b10000000000000000000111100000100 e
b0100000000000010000000000011000 g
1i
b0100 j
#221
b0100000000000010000001101100110 !
0$
0i
b0101000001 #
b10000000000000000000111100010000 '
#222
b0100000000000010000001101101000 !
0$
b0100000000000010000000101001110 "
b01000000010000010 #
